-- Merging decision tree log ---
manifest
ADDED from /Users/hilmanfajrian/Desktop/update_arkademi/arkademi/android/app/src/main/AndroidManifest.xml:1:1-33:12
INJECTED from /Users/hilmanfajrian/Desktop/update_arkademi/arkademi/android/app/src/main/AndroidManifest.xml:1:1-33:12
INJECTED from /Users/hilmanfajrian/Desktop/update_arkademi/arkademi/android/app/src/main/AndroidManifest.xml:1:1-33:12
INJECTED from /Users/hilmanfajrian/Desktop/update_arkademi/arkademi/android/app/src/main/AndroidManifest.xml:1:1-33:12
MERGED from /Users/hilmanfajrian/Desktop/update_arkademi/arkademi/android/app/src/main/AndroidManifest.xml:1:1-33:12
MERGED from [:video_player] /Users/hilmanfajrian/Desktop/update_arkademi/arkademi/build/video_player/intermediates/merged_manifests/debug/processDebugManifest/merged/AndroidManifest.xml:2:1-7:12
MERGED from [:shared_preferences] /Users/hilmanfajrian/Desktop/update_arkademi/arkademi/build/shared_preferences/intermediates/merged_manifests/debug/processDebugManifest/merged/AndroidManifest.xml:2:1-7:12
MERGED from [:screen] /Users/hilmanfajrian/Desktop/update_arkademi/arkademi/build/screen/intermediates/merged_manifests/debug/processDebugManifest/merged/AndroidManifest.xml:2:1-11:12
MERGED from [:url_launcher] /Users/hilmanfajrian/Desktop/update_arkademi/arkademi/build/url_launcher/intermediates/merged_manifests/debug/processDebugManifest/merged/AndroidManifest.xml:2:1-14:12
MERGED from [com.google.android.exoplayer:exoplayer-hls:2.9.6] /Users/hilmanfajrian/.gradle/caches/transforms-1/files-1.1/exoplayer-hls-2.9.6.aar/39ff0edfdd48d7656e5d5c992d6c0a79/AndroidManifest.xml:17:1-24:12
MERGED from [com.google.android.exoplayer:exoplayer-dash:2.9.6] /Users/hilmanfajrian/.gradle/caches/transforms-1/files-1.1/exoplayer-dash-2.9.6.aar/5f73c41775e0cb616652b875d2dc0de7/AndroidManifest.xml:17:1-24:12
MERGED from [com.google.android.exoplayer:exoplayer-smoothstreaming:2.9.6] /Users/hilmanfajrian/.gradle/caches/transforms-1/files-1.1/exoplayer-smoothstreaming-2.9.6.aar/a382aab01fa6308a2d0dbdaa922c6d71/AndroidManifest.xml:17:1-24:12
MERGED from [com.google.android.exoplayer:exoplayer-core:2.9.6] /Users/hilmanfajrian/.gradle/caches/transforms-1/files-1.1/exoplayer-core-2.9.6.aar/ff3b0c7d9d612d33ae7f04d178a31c44/AndroidManifest.xml:17:1-26:12
INJECTED from /Users/hilmanfajrian/Desktop/update_arkademi/arkademi/android/app/src/debug/AndroidManifest.xml:1:1-7:12
INJECTED from /Users/hilmanfajrian/Desktop/update_arkademi/arkademi/android/app/src/debug/AndroidManifest.xml:1:1-7:12
INJECTED from /Users/hilmanfajrian/Desktop/update_arkademi/arkademi/android/app/src/debug/AndroidManifest.xml:1:1-7:12
	package
		ADDED from /Users/hilmanfajrian/Desktop/update_arkademi/arkademi/android/app/src/main/AndroidManifest.xml:2:5-35
		INJECTED from /Users/hilmanfajrian/Desktop/update_arkademi/arkademi/android/app/src/main/AndroidManifest.xml
		INJECTED from /Users/hilmanfajrian/Desktop/update_arkademi/arkademi/android/app/src/debug/AndroidManifest.xml
	android:versionName
		INJECTED from /Users/hilmanfajrian/Desktop/update_arkademi/arkademi/android/app/src/main/AndroidManifest.xml
		ADDED from /Users/hilmanfajrian/Desktop/update_arkademi/arkademi/android/app/src/main/AndroidManifest.xml:1:1-33:12
		INJECTED from /Users/hilmanfajrian/Desktop/update_arkademi/arkademi/android/app/src/debug/AndroidManifest.xml
	android:versionCode
		INJECTED from /Users/hilmanfajrian/Desktop/update_arkademi/arkademi/android/app/src/main/AndroidManifest.xml
		ADDED from /Users/hilmanfajrian/Desktop/update_arkademi/arkademi/android/app/src/main/AndroidManifest.xml:1:1-33:12
		INJECTED from /Users/hilmanfajrian/Desktop/update_arkademi/arkademi/android/app/src/debug/AndroidManifest.xml
	xmlns:android
		ADDED from /Users/hilmanfajrian/Desktop/update_arkademi/arkademi/android/app/src/main/AndroidManifest.xml:1:11-69
application
ADDED from /Users/hilmanfajrian/Desktop/update_arkademi/arkademi/android/app/src/main/AndroidManifest.xml:9:5-32:19
MERGED from [:url_launcher] /Users/hilmanfajrian/Desktop/update_arkademi/arkademi/build/url_launcher/intermediates/merged_manifests/debug/processDebugManifest/merged/AndroidManifest.xml:7:5-12:19
MERGED from [:url_launcher] /Users/hilmanfajrian/Desktop/update_arkademi/arkademi/build/url_launcher/intermediates/merged_manifests/debug/processDebugManifest/merged/AndroidManifest.xml:7:5-12:19
	android:label
		ADDED from /Users/hilmanfajrian/Desktop/update_arkademi/arkademi/android/app/src/main/AndroidManifest.xml:11:9-33
	android:icon
		ADDED from /Users/hilmanfajrian/Desktop/update_arkademi/arkademi/android/app/src/main/AndroidManifest.xml:12:9-43
	android:name
		ADDED from /Users/hilmanfajrian/Desktop/update_arkademi/arkademi/android/app/src/main/AndroidManifest.xml:10:9-57
activity#com.example.arkademi.MainActivity
ADDED from /Users/hilmanfajrian/Desktop/update_arkademi/arkademi/android/app/src/main/AndroidManifest.xml:13:9-31:20
	android:launchMode
		ADDED from /Users/hilmanfajrian/Desktop/update_arkademi/arkademi/android/app/src/main/AndroidManifest.xml:15:13-43
	android:hardwareAccelerated
		ADDED from /Users/hilmanfajrian/Desktop/update_arkademi/arkademi/android/app/src/main/AndroidManifest.xml:18:13-47
	android:windowSoftInputMode
		ADDED from /Users/hilmanfajrian/Desktop/update_arkademi/arkademi/android/app/src/main/AndroidManifest.xml:19:13-55
	android:configChanges
		ADDED from /Users/hilmanfajrian/Desktop/update_arkademi/arkademi/android/app/src/main/AndroidManifest.xml:17:13-144
	android:theme
		ADDED from /Users/hilmanfajrian/Desktop/update_arkademi/arkademi/android/app/src/main/AndroidManifest.xml:16:13-47
	android:name
		ADDED from /Users/hilmanfajrian/Desktop/update_arkademi/arkademi/android/app/src/main/AndroidManifest.xml:14:13-41
meta-data#io.flutter.app.android.SplashScreenUntilFirstFrame
ADDED from /Users/hilmanfajrian/Desktop/update_arkademi/arkademi/android/app/src/main/AndroidManifest.xml:24:13-26:40
	android:value
		ADDED from /Users/hilmanfajrian/Desktop/update_arkademi/arkademi/android/app/src/main/AndroidManifest.xml:26:17-37
	android:name
		ADDED from /Users/hilmanfajrian/Desktop/update_arkademi/arkademi/android/app/src/main/AndroidManifest.xml:25:17-82
intent-filter#action:name:android.intent.action.MAIN+category:name:android.intent.category.LAUNCHER
ADDED from /Users/hilmanfajrian/Desktop/update_arkademi/arkademi/android/app/src/main/AndroidManifest.xml:27:13-30:29
action#android.intent.action.MAIN
ADDED from /Users/hilmanfajrian/Desktop/update_arkademi/arkademi/android/app/src/main/AndroidManifest.xml:28:17-68
	android:name
		ADDED from /Users/hilmanfajrian/Desktop/update_arkademi/arkademi/android/app/src/main/AndroidManifest.xml:28:25-66
category#android.intent.category.LAUNCHER
ADDED from /Users/hilmanfajrian/Desktop/update_arkademi/arkademi/android/app/src/main/AndroidManifest.xml:29:17-76
	android:name
		ADDED from /Users/hilmanfajrian/Desktop/update_arkademi/arkademi/android/app/src/main/AndroidManifest.xml:29:27-74
uses-sdk
INJECTED from /Users/hilmanfajrian/Desktop/update_arkademi/arkademi/android/app/src/main/AndroidManifest.xml reason: use-sdk injection requested
INJECTED from /Users/hilmanfajrian/Desktop/update_arkademi/arkademi/android/app/src/main/AndroidManifest.xml
INJECTED from /Users/hilmanfajrian/Desktop/update_arkademi/arkademi/android/app/src/main/AndroidManifest.xml
MERGED from [:video_player] /Users/hilmanfajrian/Desktop/update_arkademi/arkademi/build/video_player/intermediates/merged_manifests/debug/processDebugManifest/merged/AndroidManifest.xml:5:5-44
MERGED from [:video_player] /Users/hilmanfajrian/Desktop/update_arkademi/arkademi/build/video_player/intermediates/merged_manifests/debug/processDebugManifest/merged/AndroidManifest.xml:5:5-44
MERGED from [:shared_preferences] /Users/hilmanfajrian/Desktop/update_arkademi/arkademi/build/shared_preferences/intermediates/merged_manifests/debug/processDebugManifest/merged/AndroidManifest.xml:5:5-44
MERGED from [:shared_preferences] /Users/hilmanfajrian/Desktop/update_arkademi/arkademi/build/shared_preferences/intermediates/merged_manifests/debug/processDebugManifest/merged/AndroidManifest.xml:5:5-44
MERGED from [:screen] /Users/hilmanfajrian/Desktop/update_arkademi/arkademi/build/screen/intermediates/merged_manifests/debug/processDebugManifest/merged/AndroidManifest.xml:7:5-9:41
MERGED from [:screen] /Users/hilmanfajrian/Desktop/update_arkademi/arkademi/build/screen/intermediates/merged_manifests/debug/processDebugManifest/merged/AndroidManifest.xml:7:5-9:41
MERGED from [:url_launcher] /Users/hilmanfajrian/Desktop/update_arkademi/arkademi/build/url_launcher/intermediates/merged_manifests/debug/processDebugManifest/merged/AndroidManifest.xml:5:5-44
MERGED from [:url_launcher] /Users/hilmanfajrian/Desktop/update_arkademi/arkademi/build/url_launcher/intermediates/merged_manifests/debug/processDebugManifest/merged/AndroidManifest.xml:5:5-44
MERGED from [com.google.android.exoplayer:exoplayer-hls:2.9.6] /Users/hilmanfajrian/.gradle/caches/transforms-1/files-1.1/exoplayer-hls-2.9.6.aar/39ff0edfdd48d7656e5d5c992d6c0a79/AndroidManifest.xml:20:5-22:41
MERGED from [com.google.android.exoplayer:exoplayer-hls:2.9.6] /Users/hilmanfajrian/.gradle/caches/transforms-1/files-1.1/exoplayer-hls-2.9.6.aar/39ff0edfdd48d7656e5d5c992d6c0a79/AndroidManifest.xml:20:5-22:41
MERGED from [com.google.android.exoplayer:exoplayer-dash:2.9.6] /Users/hilmanfajrian/.gradle/caches/transforms-1/files-1.1/exoplayer-dash-2.9.6.aar/5f73c41775e0cb616652b875d2dc0de7/AndroidManifest.xml:20:5-22:41
MERGED from [com.google.android.exoplayer:exoplayer-dash:2.9.6] /Users/hilmanfajrian/.gradle/caches/transforms-1/files-1.1/exoplayer-dash-2.9.6.aar/5f73c41775e0cb616652b875d2dc0de7/AndroidManifest.xml:20:5-22:41
MERGED from [com.google.android.exoplayer:exoplayer-smoothstreaming:2.9.6] /Users/hilmanfajrian/.gradle/caches/transforms-1/files-1.1/exoplayer-smoothstreaming-2.9.6.aar/a382aab01fa6308a2d0dbdaa922c6d71/AndroidManifest.xml:20:5-22:41
MERGED from [com.google.android.exoplayer:exoplayer-smoothstreaming:2.9.6] /Users/hilmanfajrian/.gradle/caches/transforms-1/files-1.1/exoplayer-smoothstreaming-2.9.6.aar/a382aab01fa6308a2d0dbdaa922c6d71/AndroidManifest.xml:20:5-22:41
MERGED from [com.google.android.exoplayer:exoplayer-core:2.9.6] /Users/hilmanfajrian/.gradle/caches/transforms-1/files-1.1/exoplayer-core-2.9.6.aar/ff3b0c7d9d612d33ae7f04d178a31c44/AndroidManifest.xml:20:5-22:41
MERGED from [com.google.android.exoplayer:exoplayer-core:2.9.6] /Users/hilmanfajrian/.gradle/caches/transforms-1/files-1.1/exoplayer-core-2.9.6.aar/ff3b0c7d9d612d33ae7f04d178a31c44/AndroidManifest.xml:20:5-22:41
INJECTED from /Users/hilmanfajrian/Desktop/update_arkademi/arkademi/android/app/src/debug/AndroidManifest.xml
INJECTED from /Users/hilmanfajrian/Desktop/update_arkademi/arkademi/android/app/src/debug/AndroidManifest.xml
	android:targetSdkVersion
		INJECTED from /Users/hilmanfajrian/Desktop/update_arkademi/arkademi/android/app/src/main/AndroidManifest.xml
		INJECTED from /Users/hilmanfajrian/Desktop/update_arkademi/arkademi/android/app/src/debug/AndroidManifest.xml
	android:minSdkVersion
		INJECTED from /Users/hilmanfajrian/Desktop/update_arkademi/arkademi/android/app/src/main/AndroidManifest.xml
		INJECTED from /Users/hilmanfajrian/Desktop/update_arkademi/arkademi/android/app/src/debug/AndroidManifest.xml
uses-permission#android.permission.INTERNET
ADDED from /Users/hilmanfajrian/Desktop/update_arkademi/arkademi/android/app/src/debug/AndroidManifest.xml:6:5-66
	android:name
		ADDED from /Users/hilmanfajrian/Desktop/update_arkademi/arkademi/android/app/src/debug/AndroidManifest.xml:6:22-64
activity#io.flutter.plugins.urllauncher.WebViewActivity
ADDED from [:url_launcher] /Users/hilmanfajrian/Desktop/update_arkademi/arkademi/build/url_launcher/intermediates/merged_manifests/debug/processDebugManifest/merged/AndroidManifest.xml:8:9-11:74
	android:exported
		ADDED from [:url_launcher] /Users/hilmanfajrian/Desktop/update_arkademi/arkademi/build/url_launcher/intermediates/merged_manifests/debug/processDebugManifest/merged/AndroidManifest.xml:10:13-37
	android:theme
		ADDED from [:url_launcher] /Users/hilmanfajrian/Desktop/update_arkademi/arkademi/build/url_launcher/intermediates/merged_manifests/debug/processDebugManifest/merged/AndroidManifest.xml:11:13-71
	android:name
		ADDED from [:url_launcher] /Users/hilmanfajrian/Desktop/update_arkademi/arkademi/build/url_launcher/intermediates/merged_manifests/debug/processDebugManifest/merged/AndroidManifest.xml:9:13-74
uses-permission#android.permission.ACCESS_NETWORK_STATE
ADDED from [com.google.android.exoplayer:exoplayer-core:2.9.6] /Users/hilmanfajrian/.gradle/caches/transforms-1/files-1.1/exoplayer-core-2.9.6.aar/ff3b0c7d9d612d33ae7f04d178a31c44/AndroidManifest.xml:24:5-79
	android:name
		ADDED from [com.google.android.exoplayer:exoplayer-core:2.9.6] /Users/hilmanfajrian/.gradle/caches/transforms-1/files-1.1/exoplayer-core-2.9.6.aar/ff3b0c7d9d612d33ae7f04d178a31c44/AndroidManifest.xml:24:22-76
