<svg xmlns="http://www.w3.org/2000/svg" width="16" height="25" viewBox="0 0 16 25">
  <path id="angle-right" d="M40.2,109.778,29.672,120.4a1.84,1.84,0,0,1-2.626,0l-1.75-1.765a1.878,1.878,0,0,1,0-2.648l7.466-7.529L25.3,100.929a1.878,1.878,0,0,1,0-2.648L27.039,96.5a1.84,1.84,0,0,1,2.626,0L40.2,107.122A1.88,1.88,0,0,1,40.2,109.778Z" transform="translate(-24.75 -95.95)" fill="#a4c267"/>
</svg>
