<svg xmlns="http://www.w3.org/2000/svg" width="27.819" height="27.818" viewBox="0 0 27.819 27.818">
  <path id="book-reader" d="M19.125,5.216a5.216,5.216,0,1,0-5.216,5.216A5.216,5.216,0,0,0,19.125,5.216ZM12.691,13.1c-3.224-1.973-8.445-2.516-11.072-2.665A1.5,1.5,0,0,0,0,11.906V24.011a1.494,1.494,0,0,0,1.439,1.47c2.372.124,7.171.58,10.488,2.251a.756.756,0,0,0,1.113-.645V13.722a.723.723,0,0,0-.349-.623ZM26.2,10.434c-2.627.149-7.849.692-11.072,2.665a.736.736,0,0,0-.348.632V27.086a.759.759,0,0,0,1.116.647c3.316-1.669,8.113-2.125,10.484-2.249a1.5,1.5,0,0,0,1.439-1.47V11.906A1.5,1.5,0,0,0,26.2,10.434Z" transform="translate(0)" fill="#fff"/>
</svg>
