<svg xmlns="http://www.w3.org/2000/svg" width="42" height="42" viewBox="0 0 42 42">
  <path id="bullseye" d="M21,8A21,21,0,1,0,42,29,21,21,0,0,0,21,8Zm0,36.581A15.581,15.581,0,1,1,36.581,29,15.572,15.572,0,0,1,21,44.581Zm0-26.419A10.839,10.839,0,1,0,31.839,29,10.839,10.839,0,0,0,21,18.161Zm0,16.258A5.419,5.419,0,1,1,26.419,29,5.425,5.425,0,0,1,21,34.419Z" transform="translate(0 -8)" fill="red"/>
</svg>
