<svg xmlns="http://www.w3.org/2000/svg" width="17.959" height="18.28" viewBox="0 0 17.959 18.28">
  <path id="indent" d="M0,30.245v-1.6A.641.641,0,0,1,.641,28H17.318a.641.641,0,0,1,.641.641v1.6a.641.641,0,0,1-.641.641H.641A.641.641,0,0,1,0,30.245Zm7.055,5.773H17.318a.641.641,0,0,0,.641-.641v-1.6a.641.641,0,0,0-.641-.641H7.055a.641.641,0,0,0-.641.641v1.6A.641.641,0,0,0,7.055,36.018ZM.641,46.28H17.318a.641.641,0,0,0,.641-.641v-1.6a.641.641,0,0,0-.641-.641H.641A.641.641,0,0,0,0,44.035v1.6A.641.641,0,0,0,.641,46.28Zm6.414-5.131H17.318a.641.641,0,0,0,.641-.641V38.9a.641.641,0,0,0-.641-.641H7.055a.641.641,0,0,0-.641.641v1.6A.641.641,0,0,0,7.055,41.149ZM4.943,36.686,1.095,32.839A.642.642,0,0,0,0,33.292v7.7a.642.642,0,0,0,1.095.454l3.848-3.848a.641.641,0,0,0,0-.907Z" transform="translate(0 -28)" fill="#787878"/>
</svg>
